TDCR Measurement
Date [dd/mm/yyyy], LOCAL,20/07/2019
Time [hh:mm:ss.ms], LOCAL,12:02:04.463
Hardware, nanoTDCR TD9009
Serial Number,10060
Firmware Version,50.20
FPGA Version,  7.0
Operator,B.S
Nuclides,H-3 filter 80%
LS Coctail,LNHBcert_Wallac 
High Voltage,+900V
Threshold A [mV],  -1.45
Threshold B [mV],  -2.20
Threshold C [mV],  -0.99
Dead Time Extension 1 [us], 50.000
Dead Time Extension 2 [us],100.000
Coincidence Window N [ns],100
Coincidence Window M [ns],40
Preset Sequential Runs,11
Preset Time per Run [s], 360.000
Time Gap between Runs [s],  0.000
Stop Timer,REAL
Runs Completed, 11
Run,Start Offset [s],RealTime[s],AB-N1[cps],BC-N1[cps],AC-N1[cps],D-N1[cps],T-N1[cps],AB-M1[cps],BC-M1[cps],AC-M1[cps],D-M1[cps],T-M1[cps],AB-N2[cps],BC-N2[cps],AC-N2[cps],D-N2[cps],T-N2[cps],AB-M2[cps],BC-M2[cps],AC-M2[cps],D-M2[cps],T-M2[cps]
1,0.000000,   360.000,   277.071,   271.042,   275.875,   429.962,   197.013,   269.515,   263.296,   268.399,   421.364,   189.923,   276.996,   270.959,   276.104,   430.237,   196.912,   269.456,   263.110,   268.616,   421.639,   189.771,
2,360.000100,   360.000,   276.939,   270.943,   274.989,   430.697,   196.087,   269.687,   263.437,   267.594,   422.097,   189.311,   276.756,   270.844,   274.905,   430.393,   196.056,   269.460,   263.306,   267.426,   421.803,   189.194,
3,720.000200,   360.000,   274.269,   270.169,   274.899,   427.620,   195.858,   267.218,   262.777,   267.331,   419.181,   189.073,   274.539,   270.157,   275.059,   427.925,   195.916,   267.461,   262.717,   267.532,   419.489,   189.110,
4,1080.000300,   360.000,   276.241,   270.062,   274.186,   428.830,   195.829,   268.766,   262.607,   266.651,   420.336,   188.844,   276.419,   269.761,   274.076,   428.738,   195.759,   268.936,   262.330,   266.580,   420.247,   188.800,
5,1440.000400,   360.000,   274.401,   269.039,   273.069,   426.594,   194.957,   266.906,   261.603,   265.729,   418.059,   188.089,   274.481,   268.963,   273.383,   426.751,   195.038,   267.010,   261.617,   266.040,   418.294,   188.187,
6,1800.000500,   360.000,   274.194,   270.083,   274.179,   428.674,   194.891,   267.104,   262.751,   266.853,   420.216,   188.246,   274.625,   270.352,   274.278,   429.001,   195.127,   267.531,   263.013,   266.898,   420.534,   188.453,
7,2160.000600,   360.000,   274.407,   270.130,   273.908,   427.499,   195.473,   267.144,   262.769,   266.577,   419.065,   188.713,   274.183,   270.000,   273.742,   427.251,   195.337,   266.865,   262.615,   266.396,   418.796,   188.540,
8,2520.000700,   360.000,   274.984,   269.214,   274.162,   427.751,   195.305,   267.637,   262.058,   266.899,   419.453,   188.571,   274.668,   268.867,   273.834,   427.392,   194.989,   267.328,   261.763,   266.571,   419.082,   188.290,
9,2880.000800,   360.000,   275.227,   270.288,   273.748,   429.011,   195.126,   267.917,   262.880,   266.385,   420.339,   188.421,   275.220,   270.570,   273.934,   428.990,   195.367,   267.894,   263.167,   266.562,   420.316,   188.653,
10,3240.000900,   360.000,   274.487,   269.208,   273.852,   428.032,   194.758,   267.336,   262.149,   266.599,   419.499,   188.292,   274.476,   269.356,   273.888,   427.990,   194.865,   267.362,   262.346,   266.664,   419.462,   188.455,
11,3600.001000,   360.000,   273.130,   266.863,   271.521,   425.230,   193.142,   265.991,   259.832,   264.292,   416.839,   186.638,   273.067,   266.843,   271.840,   425.475,   193.137,   265.913,   259.789,   264.556,   417.078,   186.590,
